{
	"6" : [
		{
			"x" : "2",
			"y" : "2"
		},
		{
			"x" : "10",
			"y" : "2"
		},
		{
			"x" : "10",
			"y" : "10"
		},
		{
			"x" : "5",
			"y" : "5"
		},
		{
			"x" : "2",
			"y" : "10"
		},
		{
			"x" : "7",
			"y" : "5"
		}
	],
	"5" : [
		{
			"x" : "10",
			"y" : "10"
		},
		{
			"x" : "50",
			"y" : "20"
		},
		{
			"x" : "18",
			"y" : "60"
		},
		{
			"x" : "15",
			"y" : "40"
		},
		{
			"x" : "20",
			"y" : "25"
		}
	],
	"4" : [
		{
			"x" : "2",
			"y" : "2"
		},
		{
			"x" : "10",
			"y" : "10"
		},
		{
			"x" : "10",
			"y" : "2"
		},
		{
			"x" : "2",
			"y" : "10"
		}
	]
}